module github.com/cilium/pwru

go 1.20

require (
	github.com/cheggaaa/pb/v3 v3.1.4
	github.com/cilium/ebpf v0.12.3
	github.com/cloudflare/cbpfc v0.0.0-20221017140110-11acb56438a2
	github.com/jsimonetti/rtnetlink v1.4.0
	github.com/mitchellh/go-ps v1.0.0
	github.com/spf13/pflag v1.0.5
	github.com/vishvananda/netns v0.0.4
	golang.org/x/net v0.19.0
	golang.org/x/sys v0.15.0
)

require (
	github.com/VividCortex/ewma v1.2.0 // indirect
	github.com/fatih/color v1.15.0 // indirect
	github.com/google/go-cmp v0.6.0 // indirect
	github.com/josharian/native v1.1.0 // indirect
	github.com/mattn/go-colorable v0.1.13 // indirect
	github.com/mattn/go-isatty v0.0.19 // indirect
	github.com/mattn/go-runewidth v0.0.14 // indirect
	github.com/mdlayher/netlink v1.7.2 // indirect
	github.com/mdlayher/socket v0.4.1 // indirect
	github.com/pkg/errors v0.9.1 // indirect
	github.com/rivo/uniseg v0.2.0 // indirect
	golang.org/x/exp v0.0.0-20231006140011-7918f672742d // indirect
	golang.org/x/sync v0.3.0 // indirect
)
